<?xml version="1.0" encoding="UTF-8" standalone="no"?>
<!-- Created with Inkscape (http://www.inkscape.org/) -->

<svg
   width="132.74266mm"
   height="66.479492mm"
   viewBox="0 0 132.74267 66.479492"
   version="1.1"
   id="svg5"
   inkscape:version="1.2.2 (b0a8486541, 2022-12-01)"
   sodipodi:docname="all-in-one.svg"
   xmlns:inkscape="http://www.inkscape.org/namespaces/inkscape"
   xmlns:sodipodi="http://sodipodi.sourceforge.net/DTD/sodipodi-0.dtd"
   xmlns:xlink="http://www.w3.org/1999/xlink"
   xmlns="http://www.w3.org/2000/svg"
   xmlns:svg="http://www.w3.org/2000/svg">
  <sodipodi:namedview
     id="namedview7"
     pagecolor="#ffffff"
     bordercolor="#000000"
     borderopacity="0.25"
     inkscape:showpageshadow="2"
     inkscape:pageopacity="0.0"
     inkscape:pagecheckerboard="0"
     inkscape:deskcolor="#d1d1d1"
     inkscape:document-units="mm"
     showgrid="false"
     inkscape:zoom="1.829812"
     inkscape:cx="682.58378"
     inkscape:cy="286.91472"
     inkscape:window-width="3840"
     inkscape:window-height="2091"
     inkscape:window-x="0"
     inkscape:window-y="0"
     inkscape:window-maximized="1"
     inkscape:current-layer="layer1" />
  <defs
     id="defs2">
    <rect
       x="108.19076"
       y="163.35992"
       width="439.81424"
       height="72.411812"
       id="rect724" />
    <rect
       x="562.05884"
       y="401.67545"
       width="215.5744"
       height="45.841068"
       id="rect4531" />
    <linearGradient
       inkscape:collect="always"
       xlink:href="#linearGradient4281"
       id="linearGradient4320"
       x1="118.71938"
       y1="90.333237"
       x2="124.52807"
       y2="90.333237"
       gradientUnits="userSpaceOnUse"
       gradientTransform="matrix(1,0,0,0.72406408,-11.440447,122.71738)" />
    <linearGradient
       id="linearGradient4281">
      <stop
         style="stop-color:#f49f00;stop-opacity:1;"
         offset="0"
         id="stop4285" />
      <stop
         style="stop-color:#976000;stop-opacity:1;"
         offset="1"
         id="stop4287" />
    </linearGradient>
    <rect
       x="144.43983"
       y="639.99377"
       width="235.62987"
       height="204.05676"
       id="rect952-3-3-7" />
    <rect
       x="144.43983"
       y="639.99377"
       width="235.62987"
       height="204.05676"
       id="rect952-3-9" />
    <rect
       x="144.43983"
       y="639.99377"
       width="135.31328"
       height="203.54956"
       id="rect952-3-2" />
    <rect
       x="144.43983"
       y="639.99377"
       width="135.31328"
       height="203.54956"
       id="rect952-3-2-2" />
  </defs>
  <g
     inkscape:label="Layer 1"
     inkscape:groupmode="layer"
     id="layer1"
     transform="translate(-22.296871,-152.85489)">
    <rect
       style="font-variation-settings:normal;opacity:1;fill:#c8beb7;fill-opacity:1;stroke:#6c5d53;stroke-width:1;stroke-linecap:butt;stroke-linejoin:miter;stroke-miterlimit:4;stroke-dasharray:none;stroke-dashoffset:0;stroke-opacity:1;stop-color:#000000;stop-opacity:1"
       id="rect111-5-3"
       width="89.290726"
       height="58.25021"
       x="22.796871"
       y="158.99933" />
    <text
       xml:space="preserve"
       transform="matrix(0.26458333,0,0,0.26458333,-24.612057,108.78676)"
       id="text722"
       style="font-size:21.3333px;text-align:center;white-space:pre;shape-inside:url(#rect724);display:inline;fill:#ffd5d5;stroke:#ff0000;stroke-width:3.77953"><tspan
         x="175.22426"
         y="182.77001"
         id="tspan504"><tspan
           style="fill:#000000;stroke:none"
           id="tspan502">Physical (or virt.) host machine</tspan></tspan></text>
    <path
       style="fill:none;fill-opacity:1;stroke:#56d600;stroke-width:0.999997;stroke-dasharray:none;stroke-opacity:1"
       d="m 89.210295,171.83898 v 38.62308 h 32.754215"
       id="path4379"
       sodipodi:nodetypes="ccc" />
    <rect
       style="mix-blend-mode:normal;fill:url(#linearGradient4320);fill-opacity:1;stroke:none;stroke-width:0.999996;stroke-dasharray:none"
       id="rect1367"
       width="4.8086829"
       height="62.419888"
       x="107.77892"
       y="156.91449" />
    <text
       xml:space="preserve"
       transform="matrix(0,-0.26458333,0.26458333,0,1.6139393,365.35444)"
       id="text4529"
       style="font-size:13.3333px;text-align:center;white-space:pre;shape-inside:url(#rect4531);display:inline;fill:none;fill-opacity:1;stroke:#0000ff;stroke-width:3.77953;stroke-dasharray:none"><tspan
         x="600.39258"
         y="413.80742"
         id="tspan508"><tspan
           style="fill:#000000;stroke:none"
           id="tspan506">no open ports needed</tspan></tspan></text>
    <text
       xml:space="preserve"
       transform="matrix(0.26458333,0,0,0.26458333,-11.79214,23.861096)"
       id="text950-5-9"
       style="font-size:32px;white-space:pre;shape-inside:url(#rect952-3-3-7);display:inline;fill:#d5f6ff;stroke:#00ccff;stroke-width:3.77953;stroke-dasharray:none"
       x="154.31987"
       y="0"><tspan
         x="144.43945"
         y="669.11015"
         id="tspan512"><tspan
           style="fill:#000000;stroke:none"
           id="tspan510">website, ssh, </tspan></tspan><tspan
         x="144.43945"
         y="709.11015"
         id="tspan516"><tspan
           style="fill:#000000;stroke:none"
           id="tspan514">IRC-server, ...</tspan></tspan></text>
    <text
       xml:space="preserve"
       transform="matrix(0.26458333,0,0,0.26458333,42.17989,-5.281073)"
       id="text950-5"
       style="font-size:32px;white-space:pre;shape-inside:url(#rect952-3-9);display:inline;fill:#d5f6ff;stroke:#00ccff;stroke-width:3.77953;stroke-dasharray:none"
       x="154.31987"
       y="0"><tspan
         x="144.43945"
         y="669.11015"
         id="tspan520"><tspan
           style="fill:#000000;stroke:none"
           id="tspan518">Tor</tspan></tspan></text>
    <text
       xml:space="preserve"
       transform="matrix(0.26458333,0,0,0.26458333,83.705905,35.930136)"
       id="text950-5-7"
       style="font-size:16px;white-space:pre;shape-inside:url(#rect952-3-2);display:inline;fill:#d5f6ff;stroke:#00ccff;stroke-width:3.77953;stroke-dasharray:none"
       x="154.31987"
       y="0"><tspan
         x="144.43945"
         y="654.55214"
         id="tspan524"><tspan
           style="fill:#000000;stroke:none"
           id="tspan522">Tor network </tspan></tspan><tspan
         x="144.43945"
         y="674.55214"
         id="tspan528"><tspan
           style="fill:#000000;stroke:none"
           id="tspan526">through internet</tspan></tspan></text>
    <text
       xml:space="preserve"
       transform="matrix(0.26458333,0,0,0.26458333,5.2298204,-5.6136709)"
       id="text950-5-7-2"
       style="font-size:16px;white-space:pre;shape-inside:url(#rect952-3-2-2);display:inline;fill:#d5f6ff;stroke:#00ccff;stroke-width:3.77953;stroke-dasharray:none"
       x="154.31987"
       y="0"><tspan
         x="144.43945"
         y="654.55214"
         id="tspan532"><tspan
           style="fill:#000000;stroke:none"
           id="tspan530">internal
</tspan></tspan><tspan
         x="144.43945"
         y="674.55214"
         id="tspan536"><tspan
           style="fill:#000000;stroke:none"
           id="tspan534">communication</tspan></tspan></text>
    <path
       style="fill:none;stroke:#ff00ff;stroke-width:1;stop-color:#000000"
       d="M 81.260852,169.23097 H 41.299295 v 24.6937"
       id="path1036"
       sodipodi:nodetypes="ccc" />
  </g>
</svg>
